PortfolioRK
…
# fit training data through the work flow 
heart_fit <- heart_wflow %>%
  fit(data = heart.train)

Warning: glm.fit: algorithm did not converge

Warning: glm.fit: fitted probabilities numerically 0 or 1 occurred

tidy(heart_fit)

# A tibble: 97 × 5
   term               estimate std.error   statistic p.value
   <chr>                 <dbl>     <dbl>       <dbl>   <dbl>
 1 (Intercept)         122.      410467.  0.000296     1.00 
 2 sexmale              46.9     118088.  0.000397     1.00 
 3 cpnon-anginal pain   93.5     124454.  0.000751     0.999
 4 cptypical angina     -0.438   150895. -0.00000291   1.00 
 5 trestbps101        -291.      780600. -0.000373     1.00 
 6 trestbps102         -95.1     543421. -0.000175     1.00 
 7 trestbps105         -71.7   47459816. -0.00000151   1.00 
 8 trestbps108        -291.      596396. -0.000488     1.00 
 9 trestbps110        -172.    47456663. -0.00000362   1.00 
10 trestbps112        -338.      586277. -0.000576     1.00 
# ℹ 87 more rows
…
